[gd_resource type="AtlasTexture" load_steps=2 format=2]

[ext_resource path="res://Assets/Enemy/Minotaur - Sprite Sheet.png" type="Texture" id=1]

[resource]
flags = 4
atlas = ExtResource( 1 )
region = Rect2( 316, 23, 52, 41 )
